{"photos":{"page":1,"pages":16,"perpage":500,"total":"7507","photo":[
  {"id":"43850197364","owner":"48503061@N00","secret":"018a1e8034","server":"1852","farm":2,"title":"Historische tram","ispublic":1,"isfriend":0,"isfamily":0},
  {"id":"44568458921","owner":"48503061@N00","secret":"8fc6247a32","server":"1855","farm":2,"title":"Blaakse Bos en Potlood","ispublic":1,"isfriend":0,"isfamily":0},
  {"id":"43850205284","owner":"48503061@N00","secret":"16454ab6d1","server":"1846","farm":2,"title":"Woontoren Gelderseplein","ispublic":1,"isfriend":0,"isfamily":0},
  {"id":"44518921232","owner":"48503061@N00","secret":"2e896d8092","server":"1845","farm":2,"title":"100D_IMG_3361","ispublic":1,"isfriend":0,"isfamily":0},
  {"id":"29630388007","owner":"48503061@N00","secret":"796a5cbd9a","server":"1892","farm":2,"title":"Wijnhaven","ispublic":1,"isfriend":0,"isfamily":0},
  {"id":"44518924182","owner":"48503061@N00","secret":"4649b5a979","server":"1884","farm":2,"title":"Crooswijk","ispublic":1,"isfriend":0,"isfamily":0},
  {"id":"44518925852","owner":"48503061@N00","secret":"06c8e55071","server":"1859","farm":2,"title":"Markthal en reuzenrad Dinner Wheel","ispublic":1,"isfriend":0,"isfamily":0},
  {"id":"44518927522","owner":"48503061@N00","secret":"d99ac1ccdf","server":"1843","farm":2,"title":"Binnenrotte vanaf Witte Huis","ispublic":1,"isfriend":0,"isfamily":0},
  {"id":"44518929002","owner":"48503061@N00","secret":"e92ae50055","server":"1895","farm":2,"title":"Nieuwe Maas","ispublic":1,"isfriend":0,"isfamily":0},
  {"id":"44518931382","owner":"48503061@N00","secret":"10ab28a4f9","server":"1888","farm":2,"title":"Oude Haven","ispublic":1,"isfriend":0,"isfamily":0},
  {"id":"43850220554","owner":"48503061@N00","secret":"806ecc6935","server":"1865","farm":2,"title":"Potlood, Laurenstoren, Binnenrotte","ispublic":1,"isfriend":0,"isfamily":0},
  {"id":"29630407267","owner":"48503061@N00","secret":"ec0006b097","server":"1884","farm":2,"title":"Binnenrotte","ispublic":1,"isfriend":0,"isfamily":0},
  {"id":"29630409537","owner":"48503061@N00","secret":"4950481080","server":"1854","farm":2,"title":"Willemsbrug","ispublic":1,"isfriend":0,"isfamily":0},
  {"id":"29630411487","owner":"48503061@N00","secret":"3f061b877a","server":"1876","farm":2,"title":"Oude Haven, Blaakse Bos","ispublic":1,"isfriend":0,"isfamily":0}
]}}
